<?xml version="1.0" encoding="UTF-8" standalone="no"?>
<!-- Created with Inkscape (http://www.inkscape.org/) -->

<svg
   xmlns:dc="http://purl.org/dc/elements/1.1/"
   xmlns:cc="http://creativecommons.org/ns#"
   xmlns:rdf="http://www.w3.org/1999/02/22-rdf-syntax-ns#"
   xmlns:svg="http://www.w3.org/2000/svg"
   xmlns="http://www.w3.org/2000/svg"
   xmlns:sodipodi="http://sodipodi.sourceforge.net/DTD/sodipodi-0.dtd"
   xmlns:inkscape="http://www.inkscape.org/namespaces/inkscape"
   width="297mm"
   height="210mm"
   viewBox="0 0 1052.3622 744.09448"
   id="svg93122"
   version="1.1"
   inkscape:version="0.91 r13725"
   sodipodi:docname="AR-spaces.svg">
  <defs
     id="defs93124" />
  <sodipodi:namedview
     id="base"
     pagecolor="#ffffff"
     bordercolor="#666666"
     borderopacity="1.0"
     inkscape:pageopacity="0.0"
     inkscape:pageshadow="2"
     inkscape:zoom="0.73223684"
     inkscape:cx="628.57143"
     inkscape:cy="288.57143"
     inkscape:document-units="px"
     inkscape:current-layer="layer1"
     showgrid="false"
     inkscape:window-width="1855"
     inkscape:window-height="1056"
     inkscape:window-x="65"
     inkscape:window-y="24"
     inkscape:window-maximized="1" />
  <metadata
     id="metadata93127">
    <rdf:RDF>
      <cc:Work
         rdf:about="">
        <dc:format>image/svg+xml</dc:format>
        <dc:type
           rdf:resource="http://purl.org/dc/dcmitype/StillImage" />
        <dc:title></dc:title>
      </cc:Work>
    </rdf:RDF>
  </metadata>
  <g
     inkscape:label="Layer 1"
     inkscape:groupmode="layer"
     id="layer1"
     transform="translate(0,-308.26772)">
    <path
       style="fill:none;stroke:#000000;stroke-width:3.38534379;stroke-linecap:round;stroke-linejoin:round;stroke-miterlimit:4;stroke-dasharray:none;stroke-opacity:1"
       inkscape:connector-curvature="0"
       d="M 525.42081,934.44904 297.91026,426.64747 m -181.94851,406.26073 363.94668,0 M 70.473842,934.44904 297.98535,426.64747"
       id="path99377"
       sodipodi:nodetypes="cccccc" />
    <path
       style="fill:none;stroke:#000000;stroke-width:3.38534379;stroke-linecap:round;stroke-linejoin:round;stroke-miterlimit:4;stroke-dasharray:none;stroke-opacity:1"
       inkscape:connector-curvature="0"
       d="M 421.37754,934.44904 297.89635,426.64747 m -81.50192,335.12882 163.01774,0 M 174.42978,934.44904 297.91026,426.64747"
       id="path99379"
       sodipodi:nodetypes="cccccc" />
    <path
       style="fill:none;stroke:#000000;stroke-width:3.38534379;stroke-linecap:round;stroke-linejoin:round;stroke-miterlimit:4;stroke-dasharray:none;stroke-opacity:1"
       inkscape:connector-curvature="0"
       d="M 872.43796,934.44904 745.48778,731.32849 m 0,-304.68106 -152.36015,0 m 152.36015,304.68106 -152.36015,0 m 0,-304.68106 0,507.80161 M 746.62014,426.49167 c 84.15839,0.6651 151.81361,69.51031 151.16897,153.68778 -0.66501,83.68959 -68.67048,151.24638 -152.32125,151.24638"
       id="path99381"
       sodipodi:nodetypes="ccccccccccc" />
    <path
       style="fill:none;stroke:#000000;stroke-width:3.38534379;stroke-linecap:round;stroke-linejoin:round;stroke-miterlimit:4;stroke-dasharray:none;stroke-opacity:1"
       inkscape:connector-curvature="0"
       d="M 834.35284,934.48811 706.62081,680.58686 M 593.12763,426.6482 l 0,507.80084 m 126.95023,-253.86218 -126.95023,0 m 126.95023,-254.05612 -126.95023,0 m 127.92666,0 c 70.15458,0.51711 126.54047,57.86997 125.95439,128.02434 -0.51701,69.76414 -57.22537,126.11018 -126.95025,126.11018"
       id="path99383"
       sodipodi:nodetypes="ccccccccccc" />
    <path
       sodipodi:nodetypes="cccccccccccc"
       id="path99385"
       d="M 953.68636,934.44904 826.73609,731.32849 m -81.24831,-304.68106 -152.36015,0 m 233.60846,304.68106 -233.60846,0 m 0,-304.68106 0,507.80161 M 826.71618,731.42583 c 83.65078,0 151.65624,-67.55679 152.32125,-151.24638 0.64464,-84.17747 -67.01058,-153.02268 -151.16901,-153.68778 l -234.74079,0.15642"
       inkscape:connector-curvature="0"
       style="fill:none;stroke:#000000;stroke-width:3.38534379;stroke-linecap:round;stroke-linejoin:round;stroke-miterlimit:4;stroke-dasharray:none;stroke-opacity:1" />
  </g>
</svg>
